102 -1 10 -1 10 -1 020000 -1 003000 -1 10 -2
103 -1 10 -1 100000 -1 10 -1 020000 -1 10 -2
104 -1 10 -1 10 -1 10 -1 10 -1 10 -2
105 -1 10 -1 10 -1 10 -1 10 -1 10 -1 003400 -1 100000 -1 10 -1 000400 -1 023000 -1 020000 -1 003400 -1 10 -1 000400 -1 10 -1 10 -1 10 -2
106 -1 10 -1 10 -2
107 -1 10 -1 10 -1 000400 -1 10 -1 100000 -1 10 -2
108 -1 10 -1 30 -1 10 -1 10 -2
109 -1 10 -1 100000 -1 020000 -1 10 -1 10 -1 000400 -1 10 -1 10 -1 000400 -1 10 -1 10 -1 10 -2
110 -1 10 -1 10 -1 000006 -2
110 -1 023000 -1 10 -1 000006 -2
110 -1 003400 -1 10 -2
101 -1 10 -1 10 -2
102 -1 10 -1 10 -1 10 -1 10 -1 10 -2
103 -1 10 -1 10 -1 10 -2
104 -1 10 -1 10 -2
105 -1 10 -1 10 -1 10 -1 000400 -1 10 -1 10 -2
106 -1 10 -1 10 -2
107 -1 10 -1 10 -1 10 -1 10 -2
108 -1 10 -1 103000 -1 10 -1 10 -2
109 -1 10 -1 10 -1 10 -1 10 -2
110 -1 10 -1 10 -2
101 -1 30 -1 10 -1 10 -1 10 -1 000400 -2
102 -1 10 -1 10 -1 020000 -1 023000 -1 10 -1 100000 -1 100000 -1 003400 -1 10 -1 000400 -1 000400 -1 10 -1 10 -1 000400 -1 003400 -1 000400 -2
101 -1 10 -1 10 -1 10 -2
102 -1 10 -1 10 -2
101 -1 10 -1 10 -1 10 -1 10 -1 10 -1 000056 -2
101 -1 10 -1 10 -1 10 -2
102 -1 10 -1 10 -1 10 -1 000400 -1 020000 -1 000400 -1 10 -1 020000 -1 000400 -1 10 -1 10 -2
103 -1 10 -1 10 -1 10 -1 10 -1 10 -1 10 -1 10 -1 10 -1 10 -2
104 -1 10 -1 10 -2
105 -1 10 -1 10 -1 100000 -1 003400 -1 020000 -1 000400 -1 10 -1 10 -1 100000 -1 020000 -1 000400 -1 000400 -1 10 -2
106 -1 10 -1 10 -2
101 -1 10 -1 10 -2
106 -1 10 -1 000006 -2
106 -1 020000 -1 10 -1 020050 -2
106 -1 10 -2
102 -1 10 -1 10 -1 000006 -2
102 -1 10 -1 10 -1 10 -2
101 -1 10 -1 10 -1 10 -2
103 -1 10 -1 10 -1 10 -2
104 -1 10 -1 10 -1 000006 -2
104 -1 100000 -1 10 -1 10 -2
105 -1 10 -1 10 -1 10 -1 100000 -1 003000 -1 003400 -1 003400 -1 003400 -1 10 -1 10 -2
106 -1 10 -1 10 -2
107 -1 10 -1 10 -1 10 -2
108 -1 10 -1 10 -1 10 -2
109 -1 10 -1 10 -1 10 -1 10 -2
110 -1 10 -1 10 -2
101 -1 10 -1 10 -2
102 -1 10 -1 10 -2
103 -1 10 -1 10 -1 10 -1 10 -1 10 -2
104 -1 10 -1 10 -1 000056 -2
104 -1 10 -1 10 -2
105 -1 10 -1 020000 -1 023000 -1 000400 -1 003000 -1 10 -1 100000 -1 000400 -1 10 -2
106 -1 10 -1 10 -2
107 -1 10 -1 10 -1 10 -1 10 -1 10 -1 10 -2
108 -1 10 -1 10 -2
109 -1 10 -1 10 -1 10 -1 10 -1 10 -1 10 -2
110 -1 10 -1 10 -2
101 -1 10 -1 10 -2
102 -1 10 -1 10 -1 003400 -1 10 -2
103 -1 10 -1 000006 -2
103 -1 10 -1 10 -1 000006 -2
103 -1 10 -1 100000 -1 020000 -1 100000 -1 10 -1 000056 -2
104 -1 003400 -1 10 -2
105 -1 10 -1 10 -1 10 -1 100000 -1 000006 -2
105 -1 10 -1 000006 -2
106 -1 10 -1 10 -1 10 -1 000400 -1 10 -2
108 -1 10 -1 10 -1 000006 -2
108 -1 100000 -1 100000 -2
109 -1 10 -1 100000 -1 10 -1 10 -1 10 -1 10 -1 10 -2
110 -1 10 -1 10 -2
101 -1 10 -1 10 -2
102 -1 10 -1 000006 -2
102 -1 10 -1 10 -1 10 -2
104 -1 10 -1 10 -1 000006 -2
104 -1 003400 -1 020000 -1 10 -1 10 -1 10 -2
105 -1 10 -1 10 -1 10 -1 100000 -1 020000 -1 003000 -1 000400 -1 000006 -2
105 -1 10 -1 020000 -1 10 -1 10 -1 000056 -2
106 -1 10 -1 10 -1 10 -1 000400 -1 10 -1 10 -2
106 -1 10 -1 10 -2
107 -1 10 -1 10 -1 10 -1 10 -1 10 -1 10 -1 10 -1 10 -2
108 -1 10 -1 10 -2
102 -1 10 -1 10 -1 10 -1 000400 -1 10 -1 10 -2
110 -1 10 -1 023000 -1 10 -1 10 -2
101 -1 10 -1 10 -2
102 -1 10 -1 10 -1 020000 -1 10 -2
101 -1 023000 -1 10 -2
103 -1 003400 -1 000006 -2
103 -1 020000 -1 10 -1 10 -2
104 -1 10 -1 000006 -2
104 -1 020000 -1 10 -2
105 -1 10 -1 10 -1 000400 -1 003400 -1 000006 -2
105 -1 10 -1 023000 -1 000006 -2
106 -1 100000 -1 000006 -2
106 -1 003000 -1 000006 -2
106 -1 10 -1 10 -1 10 -1 10 -2
108 -1 10 -1 10 -2
109 -1 10 -1 10 -1 10 -1 000400 -1 10 -2
110 -1 10 -1 10 -2
106 -1 020000 -1 10 -1 10 -1 10 -2
101 -1 10 -1 10 -2
102 -1 10 -1 10 -2
103 -1 003000 -2
101 -1 003400 -1 10 -2
103 -1 10 -2
101 -1 10 -2
104 -1 10 -1 10 -2
105 -1 10 -1 10 -1 10 -1 000400 -1 023000 -1 003400 -1 000400 -1 003000 -1 10 -1 000400 -1 020000 -1 10 -2
106 -1 10 -1 10 -2
107 -1 10 -1 10 -1 10 -1 000400 -1 020000 -1 103000 -1 120000 -1 000056 -2
107 -1 10 -1 10 -1 100000 -1 100000 -2
108 -1 10 -1 000400 -1 000006 -2
108 -1 10 -1 100000 -1 10 -1 10 -1 000006 -2
108 -1 10 -1 100000 -1 10 -1 10 -2
109 -1 10 -1 100000 -1 100000 -1 100000 -1 10 -1 000400 -1 120000 -1 10 -1 100000 -1 020000 -1 000400 -1 020000 -1 000400 -1 10 -2
110 -1 10 -1 10 -2
101 -1 10 -1 10 -2
102 -1 10 -1 10 -2
103 -1 10 -1 000006 -2
103 -1 000400 -1 003400 -1 10 -1 10 -2
104 -1 10 -1 023000 -1 10 -1 10 -2
105 -1 10 -1 10 -1 000400 -1 023000 -1 10 -1 023000 -1 000400 -1 10 -1 10 -2
106 -1 10 -1 10 -1 003000 -1 10 -1 10 -2
107 -1 10 -1 10 -1 000400 -1 10 -1 10 -2
108 -1 10 -1 10 -2
109 -1 10 -1 10 -1 020000 -1 10 -1 003000 -1 10 -2
110 -1 10 -1 10 -1 30 -1 30 -2
101 -1 10 -1 10 -2
102 -1 10 -1 10 -1 000400 -1 10 -1 100000 -1 003000 -1 10 -1 10 -1 000400 -1 003000 -1 000400 -1 10 -1 100000 -2
103 -1 10 -1 10 -1 003006 -2
103 -1 10 -1 003000 -1 003000 -1 100006 -2
103 -1 000400 -1 10 -1 10 -1 10 -2
103 -1 10 -1 000006 -2
103 -1 10 -1 10 -1 100000 -1 100000 -1 100000 -1 10 -1 10 -1 003400 -1 10 -1 30 -1 30 -1 30 -1 30 -1 003000 -1 003000 -2
104 -1 10 -1 10 -1 10 -1 000006 -2
104 -1 023000 -1 020000 -1 000400 -1 020006 -2
104 -1 003000 -1 120000 -1 10 -1 30 -1 10 -1 10 -1 10 -1 100000 -1 100000 -1 100000 -1 100000 -1 100000 -1 100000 -1 100000 -1 10 -1 100000 -1 10 -2
105 -1 10 -1 10 -1 10 -1 100000 -1 100400 -2
101 -1 10 -1 10 -2
102 -1 10 -1 020000 -1 000006 -2
102 -1 10 -1 10 -1 10 -1 10 -1 30 -1 000006 -2
103 -1 10 -1 10 -1 000006 -2
104 -1 000400 -1 10 -1 10 -1 10 -2
105 -1 10 -1 10 -1 10 -1 10 -2
106 -1 10 -1 000400 -1 10 -1 10 -1 10 -1 10 -1 10 -1 000006 -2
106 -1 10 -1 000006 -2
107 -1 10 -1 10 -1 000006 -2
107 -1 10 -1 10 -1 10 -2
108 -1 10 -1 10 -1 100000 -1 10 -1 10 -1 000050 -2
108 -1 023000 -1 100000 -1 10 -2
102 -1 10 -1 10 -1 000400 -1 10 -2
109 -1 10 -1 10 -1 000006 -2
109 -1 10 -1 000006 -2
109 -1 020000 -1 10 -1 10 -1 000400 -1 100000 -1 020000 -1 003400 -1 30 -1 10 -2
110 -1 10 -1 10 -2
101 -1 10 -1 003400 -1 10 -1 000050 -2
101 -1 120000 -1 10 -1 10 -1 30 -2
102 -1 10 -1 10 -1 10 -1 020000 -1 10 -2
103 -1 10 -1 10 -1 10 -1 100000 -1 100000 -1 10 -2
104 -1 10 -1 10 -1 10 -1 100000 -1 003400 -1 10 -1 000056 -2
104 -1 000006 -2
104 -1 003000 -1 10 -1 10 -1 003400 -1 10 -2
105 -1 10 -1 10 -1 10 -1 003000 -1 10 -1 000400 -1 000400 -1 10 -1 020000 -1 020000 -1 003400 -1 020000 -1 000400 -1 10 -1 10 -2
106 -1 10 -1 10 -2
107 -1 10 -1 023000 -1 10 -1 10 -1 10 -2
108 -1 10 -1 100000 -1 10 -1 100000 -1 100000 -1 100000 -1 30 -1 100000 -1 10 -1 020000 -1 103400 -1 10 -2
109 -1 10 -1 10 -1 10 -1 000400 -1 10 -1 10 -2
110 -1 000006 -2
110 -1 003400 -1 10 -2
101 -1 10 -1 10 -2
102 -1 10 -1 10 -1 003400 -1 10 -1 30 -1 10 -1 003006 -2
102 -1 10 -1 10 -1 30 -1 003000 -2
103 -1 10 -1 30 -1 10 -1 10 -2
104 -1 10 -1 10 -2
105 -1 10 -1 10 -1 10 -1 003400 -1 020000 -1 000400 -1 10 -1 000400 -1 10 -2
106 -1 10 -1 10 -2
107 -1 10 -1 10 -1 10 -1 10 -2
108 -1 10 -1 100000 -1 100000 -2
101 -1 10 -1 10 -1 100000 -1 10 -1 10 -2
102 -1 10 -1 020000 -1 000400 -1 003400 -1 020000 -1 10 -2
103 -1 10 -1 000006 -2
103 -1 10 -1 10 -1 10 -2
104 -1 10 -1 10 -2
105 -1 10 -1 020000 -1 100000 -1 020000 -1 100400 -1 120000 -1 003400 -1 000400 -1 020000 -1 000400 -1 000400 -1 10 -2
106 -1 10 -1 10 -2
107 -1 10 -1 020000 -1 023000 -1 10 -1 10 -1 10 -2
108 -1 10 -1 10 -1 000400 -1 10 -2
109 -1 10 -1 10 -1 10 -1 10 -1 10 -2
110 -1 10 -1 10 -2
101 -1 10 -1 10 -2
102 -1 10 -1 10 -1 10 -1 10 -1 10 -2
101 -1 10 -1 10 -2
103 -1 10 -1 10 -2
104 -1 10 -1 003000 -1 000050 -2
104 -1 000006 -2
104 -1 003000 -1 10 -1 10 -1 003000 -1 10 -1 000006 -2
104 -1 10 -1 10 -2
105 -1 10 -1 10 -1 10 -1 100000 -1 003400 -1 000400 -1 023000 -1 003400 -1 10 -2
106 -1 10 -1 10 -2
107 -1 10 -1 10 -1 10 -1 000400 -1 10 -2
108 -1 10 -1 023000 -1 10 -1 003000 -1 10 -1 10 -1 10 -2
109 -1 10 -1 10 -1 020000 -1 10 -2
110 -1 10 -1 10 -1 000006 -2
110 -1 100006 -2
110 -1 100006 -2
110 -1 003400 -1 10 -1 10 -1 020000 -1 10 -1 100000 -1 10 -2
101 -1 10 -1 000006 -2
101 -1 30 -2
102 -1 10 -1 10 -1 000006 -2
102 -1 000400 -1 10 -1 10 -1 000400 -1 023000 -1 003400 -1 020000 -1 003000 -2
105 -1 10 -1 10 -1 000400 -1 023000 -1 30 -1 003006 -2
105 -1 10 -2
104 -1 10 -1 020000 -2
101 -1 10 -2
104 -1 000400 -1 000400 -1 10 -1 000400 -1 30 -2
102 -1 10 -1 10 -1 000006 -2
102 -1 30 -1 10 -1 10 -2
102 -1 30 -1 10 -1 10 -1 100000 -1 10 -2
103 -1 30 -1 10 -1 10 -1 000400 -1 10 -2
104 -1 10 -1 10 -1 10 -1 10 -1 000400 -1 10 -2
105 -1 30 -1 10 -1 10 -1 100000 -1 10 -1 020000 -2
107 -1 30 -1 10 -1 10 -1 10 -1 30 -2
108 -1 30 -1 10 -1 000400 -1 023000 -1 023000 -1 000400 -2
109 -1 000400 -1 10 -1 10 -1 10 -1 100000 -1 000400 -2
110 -1 30 -1 020006 -2
110 -1 10 -1 10 -2
102 -1 10 -1 10 -2
103 -1 10 -1 000006 -2
103 -1 10 -1 020000 -1 003006 -2
104 -1 003400 -1 000400 -1 10 -2
105 -1 10 -1 003000 -1 020000 -1 000056 -2
105 -1 10 -1 000006 -2
104 -1 020000 -1 000006 -2
104 -1 10 -1 10 -2
108 -1 10 -1 10 -1 10 -1 000050 -2
108 -1 000006 -2
108 -1 10 -1 000006 -2
109 -1 10 -1 000006 -2
109 -1 10 -1 10 -1 000400 -1 10 -2
108 -1 10 -1 10 -2
110 -1 10 -1 10 -1 10 -1 000400 -1 10 -2
106 -1 10 -1 10 -1 000006 -2
106 -1 020000 -1 10 -2
101 -1 10 -1 10 -1 003400 -1 000400 -1 020000 -1 000006 -2
101 -1 10 -1 10 -1 10 -1 000006 -2
105 -1 10 -1 10 -1 10 -1 000400 -1 000400 -1 10 -2
101 -1 10 -2
103 -1 10 -2
104 -1 10 -2
105 -1 10 -2
106 -1 10 -2
107 -1 10 -2
108 -1 10 -2
109 -1 10 -2
110 -1 10 -2
101 -1 10 -1 10 -1 000400 -1 10 -2
102 -1 10 -1 10 -2
103 -1 10 -1 30 -1 003000 -1 003000 -1 000400 -1 020000 -1 003400 -1 000050 -2
103 -1 10 -1 10 -1 10 -2
104 -1 10 -1 10 -1 30 -1 000006 -2
104 -1 000400 -1 000006 -2
104 -1 020000 -1 10 -2
105 -1 10 -1 10 -1 10 -1 000400 -1 023000 -1 10 -1 000400 -1 10 -1 10 -2
106 -1 10 -1 10 -2
107 -1 10 -1 100000 -1 003400 -1 020000 -1 10 -1 10 -1 30 -1 10 -1 000400 -1 10 -1 003000 -1 003000 -2
108 -1 10 -1 023000 -1 000006 -2
108 -1 10 -1 020000 -1 100000 -1 000400 -1 10 -1 10 -1 003000 -1 10 -1 10 -2
109 -1 10 -1 10 -1 10 -1 10 -2
110 -1 000006 -2
110 -1 020000 -1 000006 -2
110 -1 003400 -1 10 -2
101 -1 10 -1 10 -1 10 -2
102 -1 10 -1 10 -1 10 -2
103 -1 10 -1 10 -1 10 -1 10 -2
104 -1 10 -1 10 -2
105 -1 10 -1 10 -1 020000 -1 003400 -1 003400 -1 000400 -1 10 -1 100000 -1 000400 -1 10 -2
106 -1 10 -1 10 -2
107 -1 10 -1 10 -1 10 -2
108 -1 10 -1 100000 -1 000006 -2
108 -1 023000 -1 020000 -1 10 -2
109 -1 10 -1 10 -1 000400 -1 10 -1 10 -2
110 -1 10 -1 10 -1 30 -2
101 -1 10 -1 10 -2
102 -1 10 -1 10 -1 020000 -1 10 -1 100000 -2
103 -1 10 -1 023000 -1 10 -1 000400 -1 100000 -1 10 -1 100000 -1 000400 -1 100000 -1 023000 -1 30 -1 10 -2
104 -1 10 -1 10 -1 000400 -1 000006 -2
104 -1 000406 -2
104 -1 000400 -1 10 -1 100000 -2
105 -1 10 -1 10 -1 000400 -1 000400 -1 10 -1 020000 -1 100000 -1 000400 -1 003400 -1 020000 -1 003400 -1 020000 -1 10 -1 000050 -2
105 -1 020000 -1 10 -1 100000 -1 100000 -1 003400 -1 000400 -1 020000 -1 30 -1 000400 -1 000400 -1 10 -2
106 -1 10 -1 000006 -2
106 -1 10 -1 10 -1 10 -1 100000 -1 000400 -1 023000 -1 10 -1 000400 -1 100000 -1 10 -1 000400 -1 020000 -1 000400 -1 10 -1 100000 -1 000400 -1 10 -2
107 -1 10 -1 10 -2
101 -1 10 -1 30 -1 10 -2
102 -1 10 -1 10 -2
103 -1 10 -1 020000 -1 003400 -1 023000 -1 10 -2
104 -1 10 -1 003400 -1 023000 -1 10 -1 000400 -1 020000 -1 000400 -1 10 -1 30 -1 10 -1 003000 -1 020000 -1 30 -1 30 -1 30 -1 30 -1 003000 -1 003400 -1 000400 -2
105 -1 10 -1 10 -1 000400 -1 10 -2
104 -1 10 -1 10 -1 020000 -1 003400 -1 30 -1 000400 -1 10 -2
106 -1 10 -1 10 -2
104 -1 10 -1 10 -1 000400 -2
107 -1 10 -1 10 -1 10 -1 10 -2
108 -1 10 -1 10 -2
109 -1 10 -1 100000 -1 10 -1 000400 -1 020000 -1 000400 -1 10 -1 000400 -1 10 -1 10 -2
110 -1 10 -1 10 -1 30 -1 30 -1 10 -1 10 -1 000006 -2
110 -1 020000 -2
101 -1 10 -1 10 -1 10 -2
102 -1 10 -1 10 -2
103 -1 10 -1 10 -1 000056 -2
103 -1 10 -1 10 -1 10 -1 10 -2
104 -1 10 -1 120000 -1 10 -2
105 -1 10 -1 10 -1 020000 -1 10 -1 020000 -1 000400 -1 10 -2
106 -1 10 -1 10 -1 000006 -2
106 -1 10 -1 10 -2
107 -1 10 -1 10 -1 10 -2
108 -1 10 -2
107 -1 10 -1 020000 -1 10 -1 10 -2
109 -1 10 -1 10 -1 10 -1 10 -2
110 -1 10 -1 10 -2
101 -1 10 -1 10 -2
102 -1 10 -1 10 -1 10 -1 10 -1 10 -2
103 -1 10 -1 10 -1 10 -1 10 -1 10 -1 10 -1 10 -1 30 -1 100000 -1 10 -1 023000 -1 10 -2
104 -1 10 -1 000006 -2
104 -1 003400 -1 000006 -2
104 -1 003000 -1 000006 -2
104 -1 003400 -1 10 -2
105 -1 10 -1 10 -1 000400 -1 000056 -2
105 -1 003000 -1 10 -1 003000 -1 000400 -1 003400 -1 10 -1 003400 -1 10 -1 000400 -1 10 -2
106 -1 10 -1 10 -1 10 -1 10 -1 30 -2
107 -1 10 -1 10 -1 10 -2
108 -1 10 -1 10 -1 100000 -2
109 -1 10 -1 000006 -2
109 -1 023000 -1 000006 -2
109 -1 003400 -1 10 -1 003400 -1 10 -1 10 -2
110 -1 10 -1 10 -2
101 -1 10 -1 10 -1 10 -2
102 -1 10 -1 023000 -1 020000 -1 003400 -1 020000 -1 020000 -1 023000 -1 020000 -1 000400 -1 10 -1 10 -2
103 -1 10 -1 10 -1 10 -1 003400 -1 10 -2
104 -1 10 -1 10 -1 10 -1 003006 -2
104 -1 003400 -1 10 -2
105 -1 10 -1 10 -1 020000 -1 003400 -1 000400 -1 100000 -1 000400 -1 10 -1 10 -2
106 -1 10 -1 10 -2
107 -1 10 -1 10 -1 10 -1 100000 -1 100000 -1 100000 -1 020000 -1 100000 -1 10 -2
108 -1 10 -1 10 -2
107 -1 100000 -1 10 -2
109 -1 10 -1 10 -1 000056 -2
109 -1 10 -1 10 -1 003400 -1 10 -1 10 -2
110 -1 10 -1 000006 -2
110 -1 10 -1 10 -1 100000 -2
101 -1 10 -1 10 -1 10 -1 10 -2
102 -1 10 -1 10 -2
103 -1 10 -1 100000 -1 000056 -2
103 -1 10 -1 10 -1 003006 -2
103 -1 003400 -1 10 -1 10 -2
104 -1 10 -1 000006 -2
104 -1 023000 -1 000006 -2
104 -1 003000 -1 10 -2
105 -1 10 -1 10 -1 020000 -1 003400 -1 003400 -1 10 -1 020000 -1 10 -1 020000 -1 020000 -1 003400 -1 000056 -2
105 -1 000400 -1 000400 -1 10 -2
106 -1 10 -1 10 -2
107 -1 10 -1 10 -1 10 -2
108 -1 10 -1 10 -1 10 -2
109 -1 10 -1 10 -1 000056 -2
109 -1 003400 -1 000006 -2
109 -1 020000 -1 10 -1 100000 -1 000006 -2
109 -1 100000 -1 10 -1 000400 -1 10 -1 10 -2
110 -1 10 -1 10 -2
101 -1 10 -1 10 -2
102 -1 10 -1 000006 -2
102 -1 000400 -1 10 -2
103 -1 10 -1 10 -1 003006 -2
103 -1 10 -1 000006 -2
103 -1 003400 -1 10 -1 10 -1 10 -2
104 -1 10 -1 003000 -1 003006 -2
104 -1 003400 -1 003006 -2
104 -1 003400 -1 003006 -2
104 -1 100000 -1 000006 -2
104 -1 020000 -1 003006 -2
104 -1 003400 -1 10 -2
105 -1 10 -1 000400 -1 10 -1 003400 -1 100000 -1 000006 -2
105 -1 10 -1 000006 -2
105 -1 10 -1 000006 -2
106 -1 023000 -1 000006 -2
106 -1 10 -1 003000 -1 003000 -1 003006 -2
106 -1 003400 -1 003006 -2
106 -1 10 -1 020000 -1 023000 -1 003400 -1 100000 -1 020000 -1 10 -1 10 -1 000400 -1 10 -2
108 -1 10 -1 10 -1 10 -1 10 -2
109 -1 10 -1 000006 -2
109 -1 10 -1 100000 -1 10 -1 10 -1 10 -2
110 -1 10 -1 10 -2
101 -1 10 -1 10 -2
102 -1 10 -1 10 -2
103 -1 10 -1 10 -1 003000 -1 10 -1 003000 -1 000400 -1 100000 -2
105 -1 10 -1 023000 -1 10 -1 10 -1 10 -1 10 -1 10 -1 10 -1 10 -1 10 -1 10 -1 10 -1 10 -1 10 -1 10 -1 10 -1 000006 -2
105 -1 10 -1 10 -1 10 -1 10 -1 10 -1 10 -1 10 -1 10 -1 10 -1 10 -1 000006 -2
105 -1 10 -1 10 -1 10 -1 10 -1 10 -1 10 -1 10 -1 10 -1 10 -1 10 -1 10 -1 10 -1 10 -1 10 -1 10 -1 000006 -2
105 -1 10 -1 10 -1 10 -1 10 -1 10 -1 10 -1 10 -1 10 -1 000006 -2
105 -1 10 -1 000006 -2
105 -1 10 -1 000006 -2
105 -1 000400 -1 000006 -2
103 -1 023000 -1 10 -1 10 -1 000400 -2
101 -1 10 -1 10 -2
102 -1 10 -1 10 -2
103 -1 10 -1 10 -1 10 -2
104 -1 10 -1 000006 -2
104 -1 003000 -1 000006 -2
104 -1 020000 -1 10 -2
105 -1 10 -1 020000 -1 10 -1 30 -1 003000 -1 003400 -1 023000 -1 003400 -1 10 -1 10 -1 10 -1 10 -2
106 -1 10 -1 10 -2
107 -1 10 -1 10 -1 10 -1 10 -2
108 -1 10 -1 10 -1 10 -2
109 -1 10 -1 30 -1 10 -1 10 -1 10 -1 10 -1 10 -2
110 -1 10 -1 10 -2
101 -1 10 -1 10 -2
102 -1 10 -1 10 -1 10 -1 003400 -1 10 -1 30 -1 10 -2
103 -1 10 -1 000006 -2
103 -1 023000 -1 10 -1 10 -2
104 -1 10 -1 10 -1 023006 -2
104 -1 10 -1 10 -2
105 -1 10 -1 10 -1 000400 -1 10 -1 10 -2
106 -1 10 -1 10 -1 000006 -2
106 -1 10 -1 10 -1 003400 -1 10 -2
108 -1 10 -1 10 -1 10 -1 003000 -1 10 -2
109 -1 10 -1 000006 -2
109 -1 023000 -1 10 -1 000400 -1 10 -1 000006 -2
109 -1 003000 -1 020000 -1 020000 -1 10 -2
110 -1 10 -1 10 -2
101 -1 10 -1 10 -1 10 -1 003400 -1 10 -2
102 -1 10 -1 10 -1 10 -1 10 -1 10 -2
103 -1 10 -1 10 -1 10 -2
104 -1 10 -1 10 -2
105 -1 10 -1 10 -1 10 -1 10 -1 020000 -1 020000 -1 000400 -1 10 -1 003400 -1 10 -2
106 -1 10 -1 10 -2
107 -1 10 -1 10 -1 10 -1 020000 -1 000400 -1 10 -1 10 -2
108 -1 10 -1 10 -1 10 -2
109 -1 10 -1 10 -1 10 -1 10 -2
110 -1 10 -1 000006 -2
110 -1 10 -1 003000 -1 10 -1 10 -2
101 -1 10 -1 10 -2
102 -1 10 -1 10 -1 10 -1 10 -1 000400 -1 10 -2
103 -1 10 -1 000006 -2
103 -1 003400 -1 10 -1 10 -1 10 -2
104 -1 10 -1 10 -2
105 -1 10 -1 10 -1 000400 -1 020000 -1 000400 -1 10 -2
106 -1 10 -1 10 -2
107 -1 10 -1 10 -1 000400 -1 10 -1 10 -2
108 -1 10 -1 100000 -1 023000 -1 10 -1 10 -2
109 -1 10 -1 10 -1 10 -1 100000 -2
110 -1 10 -1 10 -1 30 -1 30 -2
101 -1 10 -1 100000 -1 10 -1 30 -1 10 -1 000006 -2
101 -1 100000 -1 10 -2
102 -1 10 -1 10 -1 10 -1 10 -1 003006 -2
102 -1 10 -1 000006 -2
102 -1 10 -1 100000 -1 000400 -1 000400 -1 10 -1 10 -1 000400 -1 003400 -1 023000 -1 10 -1 000006 -2
101 -1 10 -1 10 -1 10 -1 10 -2
103 -1 10 -1 000006 -2
103 -1 10 -1 000400 -1 000006 -2
104 -1 020000 -1 023000 -1 10 -1 10 -1 10 -2
105 -1 10 -1 10 -1 100000 -1 10 -1 003400 -1 020400 -1 10 -1 10 -2
106 -1 000006 -2
106 -1 100000 -1 10 -1 10 -2
107 -1 10 -1 10 -1 003400 -1 10 -1 100000 -1 10 -1 10 -1 10 -2
109 -1 10 -1 10 -1 000006 -2
109 -1 100000 -1 10 -1 10 -1 100000 -1 100000 -1 100000 -1 10 -2
110 -1 10 -2
101 -1 10 -1 10 -1 100000 -1 10 -2
102 -1 10 -1 10 -1 30 -1 020000 -1 000400 -1 020000 -1 023000 -1 003000 -1 000400 -1 10 -1 10 -2
103 -1 10 -1 10 -1 10 -1 30 -2
101 -1 30 -1 020000 -1 10 -2
103 -1 10 -1 10 -1 10 -2
104 -1 10 -1 10 -1 020000 -1 000050 -2
104 -1 10 -1 003000 -1 10 -1 10 -2
105 -1 10 -1 10 -1 10 -1 020000 -1 100000 -1 003000 -1 003000 -1 003000 -1 000400 -1 020000 -2
106 -1 10 -1 10 -2
107 -1 10 -1 10 -1 30 -1 10 -1 000400 -1 000400 -1 10 -2
108 -1 10 -1 10 -2
109 -1 10 -1 10 -1 10 -1 10 -1 10 -1 10 -1 30 -1 10 -1 10 -1 020000 -1 10 -1 10 -1 10 -1 10 -1 10 -1 10 -2
101 -1 10 -1 10 -2
102 -1 10 -1 10 -2
103 -1 10 -1 000006 -2
103 -1 023000 -1 023000 -1 023000 -1 10 -2
104 -1 10 -1 10 -2
105 -1 10 -1 020000 -1 003400 -1 023000 -1 003400 -1 020000 -1 003000 -1 003400 -1 000006 -2
105 -1 10 -1 10 -2
107 -1 10 -1 100000 -1 000400 -1 10 -1 10 -2
108 -1 10 -1 10 -1 10 -2
109 -1 10 -1 023000 -1 10 -1 000006 -2
109 -1 10 -1 10 -2
101 -1 10 -1 10 -1 10 -2
102 -1 10 -1 10 -2
103 -1 10 -2
101 -1 10 -1 10 -1 10 -1 10 -2
103 -1 100000 -1 10 -1 10 -2
104 -1 10 -1 10 -2
105 -1 10 -1 10 -1 10 -1 10 -1 000400 -1 020000 -1 023000 -1 000400 -1 100000 -1 020000 -1 000056 -2
105 -1 003000 -1 003000 -1 020000 -1 000400 -1 003000 -1 100000 -1 10 -2
106 -1 000006 -2
106 -1 10 -1 003000 -1 10 -2
107 -1 10 -1 000006 -2
107 -1 003000 -1 10 -1 10 -1 10 -1 10 -2
108 -1 10 -1 100000 -1 10 -2
109 -1 10 -1 10 -1 10 -1 000400 -1 10 -1 003000 -1 100000 -1 10 -1 000400 -1 003000 -1 10 -1 100000 -2
102 -1 10 -1 10 -1 10 -1 10 -1 10 -2
109 -1 10 -1 10 -1 10 -1 10 -2
110 -1 10 -1 10 -2
101 -1 10 -1 10 -2
102 -1 10 -1 10 -1 10 -2
103 -1 10 -1 10 -1 10 -1 10 -1 020000 -1 10 -2
104 -1 10 -1 30 -1 30 -1 000050 -2
104 -1 30 -1 10 -1 100006 -2
104 -1 000006 -2
104 -1 003000 -1 10 -1 10 -1 000050 -2
104 -1 10 -1 10 -1 020000 -2
105 -1 10 -1 10 -1 10 -1 023000 -1 003000 -1 100000 -1 30 -1 000056 -2
105 -1 10 -1 10 -1 100000 -1 10 -1 30 -1 020000 -1 000400 -1 020000 -1 003400 -1 10 -1 020000 -1 000006 -2
105 -1 10 -1 000006 -2
106 -1 10 -1 10 -1 10 -1 10 -1 000006 -2
106 -1 003000 -1 10 -1 020000 -1 10 -1 10 -2
105 -1 000050 -2
105 -1 100000 -1 003400 -1 100000 -1 020000 -1 000006 -2
105 -1 10 -1 10 -1 10 -1 100000 -1 10 -2
108 -1 10 -1 30 -1 30 -1 30 -1 30 -2
101 -1 10 -1 10 -1 10 -2
102 -1 10 -1 10 -1 020000 -1 000400 -1 003000 -1 003400 -1 020000 -1 003000 -1 023000 -1 10 -1 023000 -1 003400 -1 100000 -1 020000 -1 020000 -1 003400 -1 10 -2
103 -1 10 -1 000400 -1 10 -1 003000 -1 003400 -1 10 -1 020000 -1 023000 -1 003000 -1 003006 -2
103 -1 003400 -1 10 -1 003400 -1 003400 -1 10 -2
104 -1 10 -1 000006 -2
104 -1 000400 -1 020000 -1 000400 -1 10 -2
105 -1 10 -1 10 -1 003400 -1 023000 -1 003400 -1 000400 -1 10 -1 003400 -1 000400 -1 023000 -1 30 -1 003000 -1 10 -1 10 -1 10 -1 020000 -1 000400 -1 003400 -1 10 -1 020000 -1 10 -1 10 -2
106 -1 10 -1 10 -2
107 -1 10 -1 10 -1 10 -2
108 -1 10 -1 10 -2
101 -1 10 -1 10 -1 10 -1 10 -2
102 -1 10 -1 10 -1 003006 -2
102 -1 10 -1 30 -1 10 -1 10 -2
104 -1 10 -1 003400 -1 10 -1 000006 -2
104 -1 003400 -1 10 -2
102 -1 10 -1 10 -1 000050 -2
102 -1 000006 -2
102 -1 003400 -1 100000 -1 10 -1 10 -2
105 -1 10 -1 10 -1 10 -1 10 -1 10 -1 10 -2
106 -1 10 -1 10 -2
107 -1 10 -1 10 -1 100000 -1 100000 -1 100000 -1 10 -1 100000 -1 020000 -1 100400 -1 100000 -1 000056 -2
107 -1 100000 -1 100000 -1 100000 -1 10 -1 10 -2
109 -1 10 -1 10 -1 10 -1 10 -2
110 -1 10 -1 10 -1 000006 -2
110 -1 10 -1 10 -1 10 -1 000400 -1 10 -1 10 -1 020000 -1 10 -1 10 -1 000400 -1 10 -1 000050 -2
101 -1 10 -1 10 -1 100000 -1 003400 -1 100000 -1 020000 -1 10 -1 10 -2
102 -1 10 -1 10 -1 10 -1 10 -1 10 -1 10 -2
103 -1 10 -1 10 -1 10 -2
104 -1 10 -1 10 -2
105 -1 10 -1 10 -1 100000 -1 10 -1 100000 -1 100000 -1 000400 -1 000400 -1 023000 -1 000400 -1 10 -1 023000 -1 000400 -1 10 -2
106 -1 10 -1 10 -1 100000 -2
107 -1 10 -1 10 -1 020000 -1 10 -1 000400 -1 100000 -1 000400 -1 10 -1 10 -1 100000 -1 100000 -1 100000 -2
108 -1 10 -1 10 -1 100000 -2
109 -1 10 -1 10 -1 003000 -2
101 -1 10 -1 10 -2
102 -1 10 -1 10 -2
103 -1 10 -1 000050 -2
103 -1 003400 -1 023000 -1 10 -2
105 -1 10 -1 10 -1 000400 -1 10 -2
103 -1 000400 -1 10 -1 000050 -2
103 -1 023000 -1 10 -2
101 -1 10 -1 003000 -1 10 -2
104 -1 10 -1 10 -1 100000 -1 000050 -2
104 -1 020000 -1 30 -2
103 -1 023000 -1 10 -1 10 -2
104 -1 000006 -2
104 -1 003400 -1 10 -1 023000 -1 10 -1 10 -2
105 -1 000400 -1 023000 -1 10 -1 10 -1 10 -1 023000 -1 003400 -1 003400 -1 100000 -1 10 -1 10 -1 10 -1 020000 -1 000400 -1 023000 -1 000400 -1 30 -2
106 -1 10 -1 023000 -1 10 -2
107 -1 10 -1 10 -1 10 -1 10 -1 10 -1 30 -1 003400 -1 10 -1 000400 -1 10 -2
108 -1 10 -1 10 -1 10 -1 10 -1 100000 -2
101 -1 30 -1 10 -1 10 -1 10 -2
102 -1 10 -1 10 -2
103 -1 10 -1 10 -1 023000 -1 10 -2
104 -1 10 -1 023000 -1 10 -1 10 -2
105 -1 10 -1 023000 -1 10 -1 10 -1 020000 -1 003000 -1 000400 -1 10 -1 003400 -1 000006 -2
105 -1 10 -1 10 -1 100000 -2
107 -1 10 -1 10 -1 10 -2
108 -1 10 -1 100000 -1 100000 -1 003400 -1 10 -1 10 -2
109 -1 10 -1 10 -1 003400 -1 10 -1 10 -2
110 -1 10 -1 10 -2
101 -1 10 -1 10 -2
102 -1 10 -1 10 -1 10 -2
103 -1 10 -1 10 -1 10 -1 10 -2
104 -1 10 -1 10 -1 30 -1 10 -1 10 -1 003400 -1 10 -2
105 -1 10 -1 10 -1 10 -1 000400 -1 10 -2
106 -1 10 -1 020000 -1 020000 -1 10 -1 10 -2
107 -1 10 -1 10 -1 10 -2
108 -1 10 -1 003400 -1 10 -1 10 -2
109 -1 10 -1 10 -1 000400 -1 10 -2
110 -1 10 -1 000006 -2
110 -1 10 -1 10 -1 000006 -2
110 -1 10 -1 10 -1 10 -2
101 -1 30 -1 10 -1 30 -1 10 -1 10 -2
102 -1 10 -1 10 -1 10 -1 020000 -1 10 -2
103 -1 10 -1 10 -1 10 -1 10 -1 10 -2
104 -1 10 -1 000400 -1 10 -1 100050 -2
104 -1 10 -1 10 -1 020000 -1 100000 -1 000400 -1 003400 -1 000400 -1 020000 -1 10 -1 10 -2
104 -1 10 -1 10 -1 10 -1 000400 -1 10 -2
106 -1 10 -1 10 -1 020000 -1 000400 -1 10 -2
107 -1 10 -1 10 -1 10 -2
108 -1 10 -1 10 -2
109 -1 10 -1 10 -1 003000 -1 10 -1 10 -2
107 -1 10 -1 10 -1 10 -1 10 -2
109 -1 003400 -1 10 -1 000400 -1 10 -1 10 -2
110 -1 10 -1 10 -2
101 -1 10 -1 10 -2
102 -1 10 -1 10 -1 003400 -1 30 -1 003400 -1 10 -2
103 -1 10 -1 000006 -2
103 -1 30 -1 10 -1 30 -1 000006 -2
103 -1 30 -1 10 -1 000056 -2
103 -1 30 -1 30 -1 003400 -1 020000 -1 003400 -1 100000 -1 100000 -1 10 -1 003000 -1 10 -1 000056 -2
103 -1 000400 -1 000006 -2
103 -1 10 -1 000006 -2
110 -1 003400 -1 10 -1 10 -1 000006 -2
110 -1 10 -1 003400 -1 10 -1 10 -2
108 -1 10 -1 10 -1 10 -2
103 -1 10 -1 10 -2
104 -1 10 -1 000006 -2
104 -1 10 -1 003400 -1 000006 -2
110 -1 10 -1 30 -1 30 -1 30 -1 30 -1 30 -1 30 -1 30 -1 30 -1 30 -1 30 -1 10 -1 10 -1 10 -1 10 -1 10 -2
102 -1 10 -1 10 -1 10 -2
103 -1 10 -1 10 -1 10 -2
104 -1 10 -1 10 -1 10 -1 003000 -1 003000 -1 003006 -2
104 -1 000400 -1 020000 -1 000400 -1 10 -2
105 -1 10 -1 10 -1 30 -1 30 -1 000400 -1 023000 -1 10 -1 30 -1 023400 -1 10 -1 000400 -1 10 -1 000400 -1 10 -1 100000 -2
106 -1 10 -1 020000 -1 10 -1 10 -2
107 -1 10 -1 10 -1 10 -1 10 -2
109 -1 10 -1 000006 -2
109 -1 023000 -1 10 -1 000400 -1 10 -1 000400 -1 10 -2
110 -1 10 -1 10 -1 003006 -2
110 -1 000400 -1 020000 -1 000400 -1 10 -2
101 -1 10 -1 10 -2
102 -1 10 -1 10 -2
103 -1 10 -1 30 -1 10 -1 10 -1 10 -1 10 -1 10 -2
104 -1 10 -1 10 -1 003000 -1 020000 -1 10 -1 10 -2
105 -1 10 -1 10 -1 003400 -1 023000 -1 000400 -1 003000 -1 020000 -1 000400 -1 10 -2
106 -1 000006 -2
106 -1 100006 -2
106 -1 003000 -1 020000 -1 10 -1 10 -2
107 -1 10 -1 10 -1 10 -2
108 -1 10 -1 10 -1 10 -2
109 -1 10 -1 10 -1 10 -1 10 -2
110 -1 10 -1 10 -1 000050 -2
110 -1 000006 -2
110 -1 10 -1 10 -1 10 -1 10 -1 10 -2
101 -1 10 -1 10 -2
102 -1 10 -1 10 -1 10 -1 003400 -1 003400 -1 000056 -2
102 -1 000400 -1 020000 -1 000400 -1 10 -1 000050 -2
102 -1 003006 -2
102 -1 100000 -1 10 -1 100000 -1 000400 -1 10 -1 020000 -1 100000 -1 100000 -1 100000 -1 000006 -2
102 -1 10 -1 003000 -1 100000 -1 10 -1 10 -1 100000 -1 10 -2
104 -1 10 -1 000006 -2
104 -1 020000 -1 100000 -1 000050 -2
104 -1 020000 -1 000006 -2
104 -1 10 -1 000400 -1 10 -1 10 -1 000006 -2
104 -1 10 -1 10 -1 100000 -1 10 -1 020000 -1 10 -1 000400 -1 020000 -1 10 -1 020000 -1 020000 -1 003400 -1 100000 -1 100000 -1 10 -1 000006 -2
105 -1 10 -1 10 -1 003400 -2
