3400 -1 10 -1 10 -1 #SUP: 44 #SID: 4 23 31 43 77 109 121 164 172 176 207 266 277 298 329 335 338 342 348 355 359 374 387 409 416 443 460 463 525 527 530 541 549 570 571 573 582 583 592 601 608 615 618 619
201 -1 3400 -1 10 -1 #SUP: 44 #SID: 4 23 31 43 61 65 109 157 161 164 172 176 181 185 199 231 266 277 290 297 298 338 339 342 359 409 416 429 433 460 463 525 526 530 537 549 573 582 583 588 592 611 618 640
201 -1 10 -1 6 -1 #SUP: 67 #SID: 9 34 37 41 62 66 69 74 76 78 91 93 113 120 136 141 143 146 148 153 182 204 208 210 229 239 243 245 261 267 280 287 292 306 314 324 333 349 356 370 381 389 395 406 417 422 425 438 442 451 457 464 481 484 488 500 518 528 537 547 579 594 612 618 622 632 656
201 -1 10 -1 3400 -1 #SUP: 49 #SID: 4 23 31 43 61 93 109 157 161 164 172 176 181 185 199 245 259 266 277 290 297 298 338 339 342 359 381 409 416 429 433 460 463 484 525 526 530 537 549 573 579 582 583 588 592 611 640 651 661
201 -1 10 -1 3400 -1 10 -1 #SUP: 41 #SID: 4 23 31 43 61 109 157 161 164 172 176 181 185 199 266 277 290 297 298 338 339 342 359 409 416 429 433 460 463 525 526 530 537 549 573 582 583 588 592 611 640
201 -1 10 -1 10 -1 #SUP: 366 #SID: 0 1 2 3 4 5 6 7 8 9 12 13 14 15 16 17 18 19 20 21 22 23 29 30 31 32 33 37 40 41 43 45 46 47 48 49 50 51 52 54 55 56 57 58 59 60 61 66 68 69 71 72 73 76 78 80 82 83 85 86 87 93 98 99 100 102 103 108 109 110 111 116 117 118 119 122 123 124 125 126 127 128 129 130 131 136 139 140 143 144 145 146 148 150 153 156 157 159 160 161 164 165 166 167 168 171 172 174 175 176 177 178 180 181 184 185 186 187 188 189 190 191 192 194 199 200 201 202 203 204 210 212 219 220 221 222 223 225 228 236 242 243 245 257 258 261 264 265 266 269 273 274 275 276 277 278 279 282 283 284 285 286 287 290 294 295 296 297 298 299 301 303 304 305 306 308 309 310 312 313 314 316 319 320 321 322 323 328 330 331 332 336 337 338 339 340 342 343 344 345 347 351 352 359 361 362 363 364 368 369 372 381 388 391 392 393 394 395 403 404 405 409 410 411 412 413 414 415 416 419 421 422 424 428 429 430 431 432 433 434 435 436 437 440 441 444 445 446 447 448 449 450 451 453 459 460 463 464 467 468 469 472 474 475 476 477 478 479 480 483 486 487 488 490 491 495 496 502 503 506 507 508 509 515 518 524 525 526 530 531 532 533 534 535 537 542 543 544 546 547 549 550 551 552 553 554 555 556 557 558 559 562 566 572 573 574 575 576 577 578 579 581 582 583 584 585 586 587 588 589 590 591 592 593 597 598 599 600 603 604 605 606 609 610 611 618 620 625 626 627 629 630 631 634 636 637 638 639 640 644 645 646 647 650 651 661
201 -1 10 -1 10 -1 3400 -1 #SUP: 38 #SID: 4 23 31 43 61 93 109 161 164 172 176 199 245 277 290 298 339 342 359 381 409 416 429 433 460 463 525 526 530 549 573 579 583 588 611 640 651 661
201 -1 10 -1 10 -1 10 -1 #SUP: 212 #SID: 0 1 2 3 4 6 7 8 13 14 16 18 19 20 22 23 29 31 40 43 45 46 47 51 54 56 58 61 66 68 71 78 80 82 85 87 99 109 111 116 122 123 124 125 127 130 136 139 144 145 146 150 159 160 161 164 166 167 168 172 174 176 178 180 187 188 189 192 199 201 202 203 219 220 221 222 223 225 236 242 257 264 266 269 273 274 275 277 279 282 285 286 290 298 299 303 305 306 308 313 316 319 322 323 330 331 337 338 339 340 342 344 351 359 362 363 388 394 395 405 409 411 412 413 416 421 424 429 430 431 433 435 436 437 441 445 447 448 449 451 453 459 460 463 467 468 469 474 476 478 486 487 490 496 503 508 509 515 518 524 525 526 530 532 534 542 544 546 549 550 551 553 555 562 573 574 575 577 578 579 581 582 583 586 587 588 589 590 591 592 593 597 598 599 603 604 606 611 620 625 626 627 629 630 631 638 639 640 644 645 646 651
201 -1 10 -1 10 -1 10 -1 10 -1 #SUP: 121 #SID: 3 4 6 8 13 16 18 20 23 29 31 43 47 51 56 58 68 71 80 82 99 109 116 123 124 125 127 130 145 146 150 159 160 161 164 166 167 168 172 176 178 180 187 189 192 199 201 202 221 242 264 266 269 275 277 282 286 290 298 303 305 306 313 319 322 323 330 339 342 344 351 359 388 395 409 411 413 416 421 424 429 430 433 435 437 441 447 453 460 463 468 476 478 496 503 509 518 525 530 534 542 546 549 550 553 555 573 574 579 583 587 588 589 598 599 606 629 631 638 639 646
201 -1 10 -1 10 -1 10 -1 10 -1 10 -1 #SUP: 54 #SID: 3 4 8 13 16 23 29 31 43 51 56 58 71 80 82 109 123 130 146 164 168 176 189 192 202 221 264 266 305 322 323 395 409 413 416 430 433 435 441 460 463 478 503 509 530 542 550 553 555 573 588 599 629 638
201 -1 10 -1 10 -1 10 -1 400 -1 #SUP: 46 #SID: 4 8 16 22 23 31 68 78 80 99 109 111 116 123 130 164 168 176 199 201 221 225 242 264 266 277 286 290 298 305 313 394 433 435 441 474 476 496 503 530 553 555 573 579 589 629
201 -1 10 -1 10 -1 10 -1 400 -1 10 -1 #SUP: 38 #SID: 4 8 16 23 31 68 80 99 109 116 123 130 164 168 176 199 201 221 242 264 266 277 286 290 305 313 433 435 441 476 503 530 553 555 573 579 589 629
201 -1 10 -1 10 -1 400 -1 #SUP: 69 #SID: 4 6 8 16 22 23 31 54 68 78 80 93 99 109 111 116 123 125 130 164 168 176 188 199 201 212 220 221 225 242 245 257 264 266 277 282 286 287 290 298 299 305 313 328 342 394 421 433 435 441 445 447 468 474 476 496 503 525 530 553 555 562 573 579 589 593 603 629 640
201 -1 10 -1 10 -1 400 -1 10 -1 #SUP: 57 #SID: 4 6 8 16 23 31 54 68 80 99 109 116 123 125 130 164 168 176 188 199 201 220 221 242 257 264 266 277 282 286 290 298 299 305 313 342 421 433 435 441 445 447 468 476 503 525 530 553 555 562 573 579 589 593 603 629 640
201 -1 10 -1 10 -1 400 -1 10 -1 10 -1 #SUP: 34 #SID: 4 6 8 16 23 31 80 109 116 123 125 130 164 168 176 264 277 282 286 290 298 305 342 421 433 435 447 468 503 525 530 553 555 629
201 -1 10 -1 10 -1 20000 -1 #SUP: 47 #SID: 1 2 4 23 31 78 87 109 111 116 127 159 164 167 176 203 222 245 277 285 290 298 305 313 342 344 359 433 435 445 468 472 474 478 496 509 525 526 530 544 549 555 579 598 603 639 640
201 -1 10 -1 10 -1 20000 -1 10 -1 #SUP: 38 #SID: 1 2 4 23 31 87 109 116 127 159 164 167 176 203 277 285 290 298 305 313 342 344 359 433 435 445 468 478 509 525 530 549 555 579 598 603 639 640
201 -1 10 -1 10 -1 100000 -1 #SUP: 48 #SID: 4 6 23 31 43 54 66 78 116 130 139 150 160 161 167 180 199 219 222 225 277 285 286 290 323 332 342 344 381 394 449 460 463 467 474 496 503 515 525 544 549 553 554 555 556 566 574 629
201 -1 10 -1 400 -1 #SUP: 80 #SID: 4 6 8 16 22 23 31 54 68 78 80 93 99 109 111 113 116 123 125 130 146 164 168 176 181 185 188 199 201 212 220 221 224 225 242 245 257 259 264 266 277 282 286 287 290 298 299 305 313 328 338 342 381 394 421 433 435 441 445 447 468 474 476 486 496 503 525 526 530 553 555 562 573 579 589 593 600 603 629 640
201 -1 10 -1 400 -1 10 -1 #SUP: 65 #SID: 4 6 8 16 23 31 54 68 80 99 109 116 123 125 130 146 164 168 176 181 185 188 199 201 220 221 242 257 264 266 277 282 286 290 298 299 305 313 338 342 381 421 433 435 441 445 447 468 476 486 503 525 526 530 553 555 562 573 579 589 593 600 603 629 640
201 -1 10 -1 400 -1 10 -1 10 -1 #SUP: 39 #SID: 4 6 8 16 23 31 54 80 109 116 123 125 130 146 164 168 176 264 277 282 286 290 298 305 338 342 421 433 435 447 468 486 503 525 526 530 553 555 629
201 -1 10 -1 23000 -1 #SUP: 38 #SID: 4 23 54 85 109 122 123 166 187 199 202 212 224 264 267 286 297 298 323 338 395 409 448 468 484 488 496 515 525 526 530 553 572 577 578 579 629 640
201 -1 10 -1 30 -1 #SUP: 37 #SID: 0 7 128 167 172 174 212 223 259 261 266 283 286 295 298 306 323 330 409 413 416 450 451 468 469 476 478 510 515 523 530 573 588 597 611 629 638
201 -1 10 -1 20000 -1 #SUP: 63 #SID: 1 2 4 8 23 31 54 78 87 109 111 116 127 141 159 164 167 176 181 185 187 203 214 222 232 245 259 266 277 285 290 297 298 305 313 338 342 344 359 409 433 435 445 468 472 474 478 484 496 509 525 526 530 544 549 555 579 590 598 603 630 639 640
201 -1 10 -1 20000 -1 10 -1 #SUP: 49 #SID: 1 2 4 8 23 31 54 87 109 116 127 159 164 167 176 181 185 187 203 266 277 285 290 297 298 305 313 338 342 344 359 409 433 435 445 468 478 509 525 530 549 555 579 590 598 603 630 639 640
201 -1 10 -1 100000 -1 #SUP: 62 #SID: 2 4 6 8 23 31 43 54 66 71 78 116 130 139 150 160 161 167 179 180 185 199 219 222 225 266 277 280 285 286 290 305 323 332 342 344 353 381 394 448 449 451 460 463 467 474 486 496 502 503 515 525 544 549 553 554 555 556 566 574 582 629
201 -1 10 -1 100000 -1 10 -1 #SUP: 42 #SID: 2 4 6 8 23 31 43 54 71 116 130 150 160 161 167 180 185 199 219 222 266 277 286 290 305 323 342 344 448 451 460 463 467 486 502 503 525 544 549 553 555 582
201 -1 400 -1 10 -1 #SUP: 68 #SID: 4 6 8 16 23 31 54 68 80 99 109 116 123 125 130 144 146 164 168 176 181 185 188 199 201 220 221 225 231 242 257 264 266 277 282 286 290 298 299 305 313 338 342 381 421 433 435 441 445 447 468 476 486 503 525 526 530 553 555 562 573 579 589 593 600 603 629 640
201 -1 400 -1 10 -1 10 -1 #SUP: 41 #SID: 4 6 8 16 23 31 54 80 109 116 123 125 130 144 146 164 168 176 225 264 277 282 286 290 298 305 338 342 421 433 435 447 468 486 503 525 526 530 553 555 629
201 -1 20000 -1 10 -1 #SUP: 50 #SID: 1 2 4 8 23 31 54 87 109 116 127 159 164 167 176 181 185 187 203 266 277 285 290 297 298 305 313 338 342 344 359 409 433 435 445 459 468 478 509 525 530 549 555 579 590 598 603 630 639 640
201 -1 100000 -1 10 -1 #SUP: 42 #SID: 2 4 6 8 23 31 43 54 71 116 130 150 160 161 167 180 185 199 219 222 266 277 286 290 305 323 342 344 448 451 460 463 467 486 502 503 525 544 549 553 555 582
10 -1 3400 -1 10 -1 #SUP: 58 #SID: 4 23 31 43 61 109 135 155 157 161 163 164 172 176 181 185 199 266 277 290 291 297 298 300 329 335 338 339 342 348 359 387 409 416 423 429 433 455 460 463 516 525 526 527 530 537 549 571 573 582 583 588 592 601 611 619 640 660
10 -1 10 -1 6 -1 #SUP: 48 #SID: 9 37 41 63 66 69 76 78 93 114 136 142 143 146 148 153 197 204 210 217 243 245 246 261 287 306 314 381 395 396 397 398 422 426 451 455 464 488 516 518 537 547 579 595 618 654 659 660
10 -1 10 -1 3400 -1 #SUP: 51 #SID: 4 23 31 43 61 93 109 135 155 161 163 164 172 176 199 211 245 277 290 298 300 329 339 342 348 359 381 409 416 423 429 433 455 460 463 516 525 526 530 549 571 573 579 583 588 601 611 640 651 660 661
10 -1 10 -1 3400 -1 10 -1 #SUP: 43 #SID: 4 23 31 43 61 109 135 155 161 163 164 172 176 199 277 290 300 329 339 342 348 359 409 416 423 429 433 455 460 463 516 525 526 530 549 571 573 583 588 601 611 640 660
10 -1 10 -1 10 -1 #SUP: 287 #SID: 0 1 2 3 4 6 7 8 13 14 16 18 19 20 22 23 24 26 27 28 29 31 38 39 40 43 45 46 47 51 54 56 58 61 66 68 71 75 77 78 79 80 82 84 85 87 97 99 101 109 111 114 115 116 122 123 124 125 127 130 133 135 136 138 139 142 144 145 146 149 150 152 155 159 160 161 163 164 166 167 168 172 174 176 178 180 183 187 188 189 192 197 199 201 202 203 207 219 220 221 222 223 225 236 240 242 246 247 257 260 264 266 268 269 273 274 275 277 279 282 285 286 290 293 298 299 300 303 305 306 308 311 313 316 318 319 322 323 329 330 331 335 337 338 339 340 342 344 348 351 359 362 363 367 374 387 388 390 394 395 396 397 398 405 409 411 412 413 416 421 423 424 429 430 431 433 435 436 437 439 441 443 445 447 448 449 451 453 455 456 459 460 463 465 467 468 469 471 473 474 476 478 486 487 490 493 496 501 503 504 505 508 509 515 516 518 519 522 524 525 526 530 532 534 536 542 544 546 548 549 550 551 553 555 562 570 571 573 574 575 577 578 579 581 582 583 586 587 588 589 590 591 592 593 596 597 598 599 601 602 603 604 606 607 608 611 619 620 624 625 626 627 629 630 631 633 638 639 640 644 645 646 649 651 655 659 660
10 -1 10 -1 10 -1 10 -1 #SUP: 157 #SID: 3 4 6 8 13 16 18 20 23 26 28 29 31 43 47 51 56 58 68 71 80 82 84 97 99 109 116 123 124 125 127 130 135 138 142 145 146 150 159 160 161 164 166 167 168 172 176 178 180 187 189 192 199 201 202 207 221 242 247 264 266 268 269 275 277 282 286 290 293 298 303 305 306 311 313 319 322 323 329 330 339 342 344 348 351 359 387 388 390 395 396 397 398 409 411 413 416 421 424 429 430 433 435 437 441 447 453 455 456 460 463 468 476 478 493 496 501 503 504 505 509 516 518 522 525 530 534 542 546 548 549 550 553 555 571 573 574 579 583 587 588 589 598 599 601 602 606 607 624 629 631 638 639 646 649 655 660
10 -1 10 -1 10 -1 10 -1 10 -1 #SUP: 70 #SID: 3 4 8 13 16 23 26 28 29 31 43 51 56 58 71 80 82 84 109 123 130 135 138 146 164 168 176 189 192 202 221 264 266 268 293 305 322 323 395 396 397 398 409 413 416 430 433 435 441 460 463 478 503 504 509 530 542 548 550 553 555 571 573 588 599 624 629 638 649 660
10 -1 10 -1 10 -1 10 -1 10 -1 10 -1 #SUP: 36 #SID: 4 8 23 28 29 56 58 71 82 130 138 146 164 264 293 323 395 396 397 398 409 413 433 463 478 503 530 542 548 550 571 573 624 629 638 660
10 -1 10 -1 10 -1 400 -1 #SUP: 58 #SID: 4 8 16 22 23 28 31 68 78 80 84 99 109 111 116 123 130 164 168 176 199 201 221 225 242 247 264 266 277 286 290 293 298 305 313 329 387 394 433 435 441 455 474 476 496 503 516 530 548 553 555 571 573 579 589 602 629 660
10 -1 10 -1 10 -1 400 -1 10 -1 #SUP: 49 #SID: 4 8 16 23 28 31 68 80 84 99 109 116 123 130 164 168 176 199 201 221 242 247 264 266 277 286 290 293 305 313 329 387 433 435 441 455 476 503 516 530 548 553 555 573 579 589 602 629 660
10 -1 10 -1 10 -1 20000 -1 #SUP: 34 #SID: 4 28 31 78 109 111 116 159 164 167 176 222 290 293 298 313 344 359 433 435 474 478 496 509 516 525 526 530 544 548 571 579 598 660
10 -1 10 -1 10 -1 100000 -1 #SUP: 40 #SID: 4 6 23 31 43 66 78 116 130 138 139 160 161 199 207 225 277 285 286 290 293 323 344 394 449 463 474 496 503 515 522 525 544 553 555 571 574 629 655 660
10 -1 10 -1 400 -1 #SUP: 90 #SID: 4 6 8 16 22 23 28 31 54 68 78 80 84 93 99 109 111 116 123 125 130 152 155 164 168 176 188 199 201 211 212 220 221 225 240 242 245 247 257 264 266 277 282 286 287 290 293 298 299 300 302 305 313 328 329 342 387 394 402 421 433 435 441 445 447 455 468 474 476 496 503 516 525 530 548 553 555 562 571 573 579 589 593 601 602 603 629 633 640 660
10 -1 10 -1 400 -1 10 -1 #SUP: 74 #SID: 4 6 8 16 23 28 31 54 68 80 84 99 109 116 123 125 130 152 155 164 168 176 188 199 201 220 221 240 242 247 257 264 266 277 282 286 290 293 298 299 300 305 313 329 342 387 421 433 435 441 445 447 455 468 476 503 516 525 530 548 553 555 562 573 579 589 593 601 602 603 629 633 640 660
10 -1 10 -1 400 -1 10 -1 10 -1 #SUP: 40 #SID: 4 6 8 16 23 28 31 80 84 109 116 123 125 130 164 168 176 264 277 282 286 290 293 298 305 342 421 433 435 447 468 503 525 530 548 553 555 601 629 660
10 -1 10 -1 30 -1 #SUP: 36 #SID: 0 128 135 142 155 158 167 172 173 212 223 261 266 283 286 298 300 306 323 330 409 416 450 451 468 469 476 478 515 516 530 571 573 588 611 629
10 -1 10 -1 20000 -1 #SUP: 60 #SID: 1 2 4 23 28 31 78 87 109 111 116 127 155 159 164 167 176 203 207 211 222 245 277 285 290 293 298 300 305 313 342 344 359 433 435 445 468 472 474 478 496 509 514 516 525 526 530 544 548 549 555 571 579 598 601 603 639 640 654 660
10 -1 10 -1 20000 -1 10 -1 #SUP: 47 #SID: 1 2 4 23 28 31 87 109 116 127 155 159 164 167 176 203 207 277 285 290 293 298 300 305 313 342 344 359 433 435 445 468 478 509 516 525 530 548 549 555 579 598 601 603 639 640 660
10 -1 10 -1 100000 -1 #SUP: 64 #SID: 4 6 23 31 43 54 66 78 112 116 130 135 138 139 150 155 160 161 167 180 199 207 219 222 225 277 285 286 290 293 323 332 342 344 350 381 394 449 460 463 465 467 474 496 503 515 516 522 525 544 549 553 554 555 556 566 571 574 580 601 629 654 655 660
10 -1 10 -1 100000 -1 10 -1 #SUP: 43 #SID: 4 6 23 31 43 54 116 130 135 138 150 155 160 161 167 180 199 207 219 222 277 286 290 293 323 342 344 460 463 465 467 503 516 522 525 544 549 553 555 571 601 655 660
10 -1 400 -1 10 -1 #SUP: 89 #SID: 4 6 8 16 23 28 31 54 68 80 84 99 109 116 123 125 130 146 152 155 164 168 176 181 185 188 199 201 220 221 240 242 247 257 264 266 268 277 282 286 290 291 293 298 299 300 305 313 329 338 342 367 381 387 421 426 433 435 441 445 447 455 468 476 486 503 516 525 526 530 548 553 555 562 573 579 589 593 600 601 602 603 608 629 633 640 654 659 660
10 -1 400 -1 10 -1 10 -1 #SUP: 52 #SID: 4 6 8 16 23 28 31 54 80 84 109 116 123 125 130 146 164 168 176 264 268 277 282 286 290 293 298 305 329 338 342 367 421 433 435 447 455 468 486 503 525 526 530 548 553 555 601 608 629 633 659 660
10 -1 400 -1 400 -1 #SUP: 40 #SID: 4 8 23 28 31 54 109 116 123 130 164 176 185 224 247 264 277 286 290 291 293 298 305 329 342 445 455 468 476 496 503 530 548 553 555 571 601 629 633 640
10 -1 400 -1 400 -1 10 -1 #SUP: 37 #SID: 4 8 23 28 31 54 109 116 123 130 164 176 185 247 264 277 286 290 291 293 298 305 329 342 445 455 468 476 503 530 548 553 555 601 629 633 640
10 -1 23000 -1 10 -1 #SUP: 36 #SID: 4 23 54 85 109 122 123 166 187 199 202 264 286 293 297 298 323 338 387 395 409 448 455 468 488 525 530 553 570 571 572 577 578 579 629 640
10 -1 20000 -1 10 -1 #SUP: 65 #SID: 1 2 4 8 23 28 31 54 64 79 87 109 116 127 155 159 164 167 176 181 185 187 203 207 266 268 277 285 290 291 293 297 298 300 305 313 318 338 342 344 359 387 409 433 435 445 468 478 509 516 519 525 530 548 549 555 579 590 598 601 603 630 639 640 660
10 -1 20000 -1 10 -1 10 -1 #SUP: 40 #SID: 4 8 23 28 31 54 79 127 164 176 187 207 266 268 277 293 298 305 313 318 338 342 359 387 409 433 435 468 478 519 525 530 548 549 555 590 601 630 639 660
10 -1 20000 -1 400 -1 #SUP: 42 #SID: 4 8 23 28 31 54 78 116 164 176 181 185 266 268 277 290 291 293 298 300 305 313 338 342 387 433 435 445 468 474 496 516 525 530 548 555 571 579 601 603 640 660
10 -1 20000 -1 400 -1 10 -1 #SUP: 38 #SID: 4 8 23 28 31 54 116 164 176 181 185 266 268 277 290 291 293 298 300 305 313 338 342 387 433 435 445 468 516 525 530 548 555 579 601 603 640 660
10 -1 100000 -1 10 -1 #SUP: 63 #SID: 2 4 6 8 23 31 43 54 64 71 114 115 116 130 135 138 150 155 160 161 167 180 185 199 207 219 222 266 268 277 286 290 291 293 305 323 342 344 387 390 448 451 455 460 463 465 467 486 502 503 516 522 525 544 549 553 555 571 582 601 654 655 660
10 -1 100000 -1 10 -1 10 -1 #SUP: 41 #SID: 2 4 8 23 31 43 71 114 115 116 130 135 138 150 167 180 266 268 286 293 305 323 342 387 390 448 451 455 460 463 486 503 516 549 553 555 571 582 601 655 660
202 -1 10 -1 10 -1 #SUP: 73 #SID: 24 25 38 39 42 53 63 75 77 79 81 90 112 114 121 142 149 158 173 183 193 211 227 240 246 260 268 291 293 300 311 315 318 329 348 350 354 390 396 402 418 420 423 426 439 443 462 465 471 473 485 489 493 494 499 501 504 505 516 519 527 536 545 548 565 571 580 595 601 607 608 619 633
202 -1 10 -1 10 -1 10 -1 #SUP: 42 #SID: 24 38 39 75 77 79 114 142 149 183 240 246 260 268 293 300 311 318 329 348 390 396 423 439 443 465 471 473 493 501 504 505 516 519 536 548 571 601 607 608 619 633
400 -1 10 -1 10 -1 #SUP: 58 #SID: 4 6 8 16 23 28 31 54 80 84 109 116 121 123 125 130 133 144 146 164 168 176 211 225 264 268 277 282 286 290 293 298 305 329 338 342 367 421 433 435 447 455 468 486 503 525 526 530 548 553 555 571 601 608 629 633 659 660
400 -1 400 -1 10 -1 #SUP: 43 #SID: 4 8 23 28 31 54 109 116 123 130 164 176 185 216 247 264 277 286 290 291 293 298 305 329 342 360 445 455 468 476 503 529 530 548 553 555 601 628 629 633 635 640 652
23000 -1 10 -1 10 -1 #SUP: 34 #SID: 4 23 54 85 109 122 123 166 187 202 264 286 293 298 338 387 395 402 409 418 426 448 459 468 525 530 553 568 570 571 578 579 629 633
20000 -1 10 -1 10 -1 #SUP: 48 #SID: 4 8 23 28 31 54 77 79 90 101 127 155 164 176 187 207 266 268 277 291 293 298 305 313 318 338 342 359 387 409 433 435 459 468 478 519 525 530 548 549 555 590 601 615 630 639 643 660
20000 -1 400 -1 10 -1 #SUP: 44 #SID: 4 8 23 28 31 54 116 155 164 176 181 185 266 268 277 290 291 293 298 300 305 313 338 342 387 433 435 445 468 497 516 525 529 530 548 555 579 601 603 628 635 640 652 660
100000 -1 10 -1 10 -1 #SUP: 50 #SID: 2 4 8 23 31 42 43 71 114 115 116 130 135 138 150 167 180 266 268 286 293 305 323 342 367 387 390 448 451 455 460 462 463 465 486 494 503 516 541 545 549 553 555 571 582 601 615 654 655 660
101 -1 201 -1 10 -1 #SUP: 48 #SID: 0 12 22 33 49 60 73 86 102 118 129 140 157 171 180 191 208 245 248 257 273 284 295 308 321 337 351 369 392 403 415 429 440 451 467 479 490 507 524 534 549 558 575 585 597 610 636 650
101 -1 201 -1 10 -1 10 -1 #SUP: 46 #SID: 0 12 22 33 49 60 73 86 102 118 129 140 157 171 180 191 245 257 273 284 295 308 321 337 351 369 392 403 415 429 440 451 467 479 490 507 524 534 549 558 575 585 597 610 636 650
101 -1 10 -1 10 -1 #SUP: 56 #SID: 0 12 22 24 26 27 33 39 49 60 73 86 102 118 129 140 157 158 171 180 191 193 245 246 257 273 284 295 308 321 337 351 369 392 403 415 429 440 451 456 467 479 490 493 507 524 534 549 558 565 575 585 597 610 636 650
102 -1 201 -1 10 -1 #SUP: 49 #SID: 1 13 23 37 50 61 74 87 103 119 130 141 159 172 181 192 210 219 228 258 274 285 296 309 322 338 352 370 393 404 416 430 441 453 468 480 491 508 525 535 550 559 576 586 598 611 625 637 651
102 -1 201 -1 10 -1 10 -1 #SUP: 46 #SID: 1 13 23 37 50 61 87 103 119 130 159 172 181 192 210 219 228 258 274 285 296 309 322 338 352 393 404 416 430 441 453 468 480 491 508 525 535 550 559 576 586 598 611 625 637 651
102 -1 10 -1 10 -1 #SUP: 64 #SID: 1 13 23 25 28 37 38 50 61 75 84 87 103 119 130 142 152 159 172 173 181 192 210 211 217 218 219 228 258 274 285 296 309 322 338 352 393 404 416 430 441 453 455 468 480 491 504 508 525 535 536 539 541 550 559 576 586 598 611 625 637 651 654 655
102 -1 10 -1 10 -1 10 -1 #SUP: 37 #SID: 1 13 23 28 38 61 75 84 87 130 142 152 159 172 192 219 274 285 322 338 416 430 441 453 455 468 504 508 525 536 550 586 598 611 625 651 655
103 -1 201 -1 10 -1 #SUP: 44 #SID: 2 14 29 40 51 62 120 131 143 160 174 182 194 220 229 249 259 275 286 297 310 323 339 353 372 394 405 417 431 442 457 469 481 492 509 526 551 560 577 587 599 612 626 638
103 -1 10 -1 10 -1 #SUP: 51 #SID: 2 14 29 40 51 63 64 90 121 131 133 135 143 160 174 183 194 220 260 275 286 297 310 311 323 339 354 355 372 374 394 402 405 418 431 443 469 471 494 509 526 527 551 568 577 587 599 615 621 626 638
104 -1 201 -1 10 -1 #SUP: 49 #SID: 3 15 30 41 52 65 76 91 108 122 136 144 161 175 184 195 214 221 231 250 261 276 287 298 312 324 340 356 375 406 419 432 444 459 472 483 495 510 528 537 552 566 578 588 600 622 627 639 656
104 -1 201 -1 10 -1 10 -1 #SUP: 35 #SID: 3 15 30 41 52 76 108 122 136 144 161 175 184 221 261 276 287 298 312 340 419 432 444 459 472 483 495 537 552 566 578 588 600 627 639
104 -1 10 -1 10 -1 #SUP: 54 #SID: 3 15 30 41 42 52 53 76 77 108 122 136 138 144 161 163 175 184 197 198 221 235 261 276 287 298 300 302 312 340 419 420 432 444 459 472 473 483 495 513 514 537 552 566 570 578 588 600 601 602 627 639 659 660
105 -1 201 -1 10 -1 #SUP: 48 #SID: 4 16 31 43 54 66 78 93 109 123 139 145 164 176 185 199 212 222 232 251 264 277 290 299 313 328 342 359 381 395 409 421 433 445 460 474 484 496 515 530 542 553 562 579 589 629 640 661
105 -1 201 -1 10 -1 10 -1 #SUP: 45 #SID: 4 16 31 43 54 66 78 93 109 123 139 145 164 176 185 199 212 222 264 277 290 299 313 328 342 359 381 395 409 421 433 445 460 474 496 515 530 542 553 562 579 589 629 640 661
105 -1 201 -1 10 -1 10 -1 10 -1 #SUP: 39 #SID: 4 16 31 43 54 66 78 109 123 139 145 164 176 199 222 264 277 290 299 313 342 359 395 409 421 433 445 460 474 496 515 530 542 553 562 579 589 629 640
105 -1 10 -1 10 -1 #SUP: 57 #SID: 4 16 31 43 54 66 78 79 93 109 123 139 145 164 176 185 199 212 222 247 264 277 290 291 299 313 328 329 342 359 381 395 396 397 398 409 421 433 445 460 474 485 496 515 516 522 530 542 553 562 571 579 580 589 629 640 661
105 -1 10 -1 10 -1 10 -1 #SUP: 48 #SID: 4 16 31 43 54 66 78 79 109 123 139 145 164 176 199 222 247 264 277 290 299 313 329 342 359 395 396 397 398 409 421 433 445 460 474 496 515 516 522 530 542 553 562 571 579 589 629 640
105 -1 10 -1 10 -1 10 -1 10 -1 #SUP: 36 #SID: 4 16 31 43 109 123 145 164 176 199 247 264 277 290 313 329 342 359 395 396 397 398 409 421 433 460 496 516 522 530 542 553 571 579 589 629
105 -1 10 -1 10 -1 400 -1 #SUP: 35 #SID: 4 16 31 54 78 93 109 123 164 176 199 212 247 264 277 290 299 313 328 329 342 421 433 445 474 496 516 530 553 562 571 579 589 629 640
105 -1 10 -1 400 -1 #SUP: 38 #SID: 4 16 31 54 78 93 109 123 164 176 185 199 212 247 264 277 290 291 299 313 328 329 342 381 421 433 445 474 496 516 530 553 562 571 579 589 629 640
105 -1 400 -1 10 -1 #SUP: 34 #SID: 4 16 31 54 109 123 164 176 185 199 247 264 277 290 291 299 313 329 342 360 381 421 433 445 497 516 530 553 562 571 579 589 629 640
106 -1 201 -1 10 -1 #SUP: 37 #SID: 5 17 32 34 55 68 80 110 124 146 165 177 186 200 243 252 265 278 292 301 314 330 343 361 410 422 434 446 475 518 531 543 554 572 590 603 630
106 -1 201 -1 10 -1 10 -1 #SUP: 34 #SID: 5 17 32 55 68 80 110 124 146 165 177 186 200 243 265 278 301 314 330 343 361 410 422 434 446 475 518 531 543 554 572 590 603 630
106 -1 10 -1 10 -1 #SUP: 46 #SID: 5 17 32 44 55 68 80 81 97 101 110 124 146 165 177 186 200 243 265 278 293 301 314 315 330 343 361 387 410 422 423 434 446 462 475 499 518 519 531 543 554 572 590 603 630 643
107 -1 201 -1 10 -1 #SUP: 38 #SID: 6 18 45 56 82 111 125 148 166 178 187 201 223 253 266 279 294 303 316 331 344 362 411 435 447 463 476 486 500 532 544 555 573 581 591 604 631 644
107 -1 201 -1 10 -1 10 -1 #SUP: 36 #SID: 6 18 45 56 82 111 125 148 166 178 187 201 223 266 279 294 303 316 331 344 362 411 435 447 463 476 486 532 544 555 573 581 591 604 631 644
107 -1 201 -1 10 -1 10 -1 10 -1 #SUP: 34 #SID: 6 18 45 56 82 111 125 166 178 187 201 223 266 279 303 316 331 344 362 411 435 447 463 476 486 532 544 555 573 581 591 604 631 644
107 -1 10 -1 10 -1 #SUP: 42 #SID: 6 18 45 56 82 111 112 125 148 149 166 178 187 201 223 266 279 294 303 316 318 331 344 362 411 435 447 463 476 486 501 532 544 545 555 573 581 591 604 607 631 644
107 -1 10 -1 10 -1 10 -1 #SUP: 38 #SID: 6 18 45 56 82 111 125 149 166 178 187 201 223 266 279 303 316 318 331 344 362 411 435 447 463 476 486 501 532 544 555 573 581 591 604 607 631 644
108 -1 201 -1 10 -1 #SUP: 41 #SID: 7 19 46 57 69 83 98 113 126 150 167 179 188 202 224 236 254 267 280 304 317 332 345 363 388 412 424 436 448 477 487 502 523 533 556 574 582 592 605 620 645
108 -1 10 -1 10 -1 #SUP: 37 #SID: 7 19 46 57 69 83 98 114 115 126 150 167 188 202 236 241 268 304 332 345 363 388 412 424 436 448 477 487 502 533 556 574 582 592 605 620 645
109 -1 201 -1 10 -1 #SUP: 38 #SID: 8 20 47 58 71 99 116 127 153 168 189 203 225 239 255 269 282 305 319 333 347 364 389 413 425 437 449 464 478 488 503 546 557 583 593 606 632 646
109 -1 10 -1 10 -1 #SUP: 44 #SID: 8 20 47 58 71 99 116 127 153 155 168 189 203 225 240 269 282 305 319 335 347 348 364 367 390 413 426 437 449 464 465 478 488 489 503 505 546 557 583 593 606 608 633 646
109 -1 10 -1 10 -1 10 -1 #SUP: 36 #SID: 8 20 47 58 71 99 116 127 155 168 189 203 225 240 269 282 305 319 335 348 367 390 413 437 449 465 478 503 505 546 583 593 606 608 633 646
110 -1 201 -1 10 -1 #SUP: 34 #SID: 9 21 48 59 72 85 100 117 128 156 190 204 242 256 283 306 320 336 349 368 391 414 428 438 450 466 506 547 584 594 609 618 634 647
110 -1 10 -1 10 -1 #SUP: 39 #SID: 9 21 48 59 72 85 100 117 128 156 190 204 207 227 242 283 306 320 336 350 368 391 414 428 439 450 506 547 548 584 595 596 609 618 619 624 634 647 649
